{"cinemas":[{"id":17068,"mark":0,"nm":"传奇影城（后瑞店）","sellPrice":"38","addr":"宝安区西乡街道后瑞地铁站B出口100处（壹航城购物中心T2栋）","distance":"200m","tag":{"allowRefund":1,"buyout":0,"cityCardTag":0,"deal":0,"endorse":1,"giftTag":"","hallType":[],"hallTypeVOList":[],"sell":1,"snack":1,"vipTag":""},"promotion":{"cardPromotionTag":"","couponPromotionTag":"","merchantActivityTag":"","packShowActivityTag":"","platformActivityTag":"","starActivityTag":""},"showTimes":"21:40"},{"id":15428,"mark":0,"nm":"中影UL城市影城（黄田店）","sellPrice":"38","addr":"宝安区西乡街道长园路28号昌宏百货四楼","distance":"1.5km","tag":{"allowRefund":0,"buyout":0,"cityCardTag":0,"deal":0,"endorse":1,"giftTag":"","hallType":[],"hallTypeVOList":[],"sell":1,"snack":1,"vipTag":""},"promotion":{"cardPromotionTag":"","couponPromotionTag":"","merchantActivityTag":"","packShowActivityTag":"","platformActivityTag":"","starActivityTag":""},"showTimes":"21:00"},{"id":16897,"mark":0,"nm":"美视国际影城（4K沉浸音）","sellPrice":"41","addr":"宝安区西乡街道前进二路桃源居10区28栋（人人乐超市二楼）","distance":"3.2km","tag":{"allowRefund":1,"buyout":0,"cityCardTag":0,"deal":0,"endorse":1,"giftTag":"","hallType":[],"hallTypeVOList":[],"sell":1,"snack":1,"vipTag":"折扣卡"},"promotion":{"cardPromotionTag":"开卡特惠，首单1张最高立减4元","couponPromotionTag":"","merchantActivityTag":"","packShowActivityTag":"","platformActivityTag":"","starActivityTag":""},"showTimes":"22:45"},{"id":24103,"mark":0,"nm":"益田国际影城（福永店）","sellPrice":"38","addr":"宝安区福永街道永泰西路益田假日天地二楼","distance":"4.3km","tag":{"allowRefund":1,"buyout":0,"cityCardTag":0,"deal":0,"endorse":1,"giftTag":"","hallType":["杜比全景声厅"],"hallTypeVOList":[{"name":"杜比全景声厅","url":""}],"sell":1,"snack":1,"vipTag":"折扣卡"},"promotion":{"cardPromotionTag":"开卡特惠，首单1张最高立减2元","couponPromotionTag":"","merchantActivityTag":"","packShowActivityTag":"","platformActivityTag":"","starActivityTag":""},"showTimes":"22:20"},{"id":15406,"mark":0,"nm":"幕森国际影城","sellPrice":"38","addr":"宝安区福永街道128号怀德村委旁汇隆城5层","distance":"4.3km","tag":{"allowRefund":0,"buyout":0,"cityCardTag":0,"deal":0,"endorse":0,"giftTag":"","hallType":[],"hallTypeVOList":[],"sell":1,"snack":0,"vipTag":"折扣卡"},"promotion":{"cardPromotionTag":"开卡特惠，首单1张最高立减4元","couponPromotionTag":"","merchantActivityTag":"","packShowActivityTag":"","platformActivityTag":"","starActivityTag":""},"showTimes":"22:15"},{"id":2623,"mark":0,"nm":"新华银兴国际影城","sellPrice":"38","addr":"宝安区西乡宝安大道与金海路交汇处金港华庭一栋三层（西乡客运站对面）","distance":"6.2km","tag":{"allowRefund":0,"buyout":0,"cityCardTag":0,"deal":0,"endorse":1,"giftTag":"","hallType":[],"hallTypeVOList":[],"sell":1,"snack":1,"vipTag":"折扣卡"},"promotion":{"cardPromotionTag":"开卡特惠，首单1张最高立减2元","couponPromotionTag":"","merchantActivityTag":"","packShowActivityTag":"","platformActivityTag":"","starActivityTag":""},"showTimes":"21:45"},{"id":16901,"mark":0,"nm":"环球国际影城（福永凤凰山店）","sellPrice":"38","addr":"宝安区福永街道凤凰社区凤凰御林山景F3-03","distance":"6.3km","tag":{"allowRefund":0,"buyout":0,"cityCardTag":0,"deal":0,"endorse":0,"giftTag":"","hallType":[],"hallTypeVOList":[],"sell":1,"snack":1,"vipTag":"折扣卡"},"promotion":{"cardPromotionTag":"开卡特惠，首单1张最高立减4元","couponPromotionTag":"","merchantActivityTag":"","packShowActivityTag":"","platformActivityTag":"","starActivityTag":""},"showTimes":"21:50"},{"id":13055,"mark":0,"nm":"云幕国际影城（西乡店）","sellPrice":"38","addr":"宝安区西乡大道与工业路交口大益广场对面共乐城购物中心四楼（大益广场对面）","distance":"6.7km","tag":{"allowRefund":0,"buyout":0,"cityCardTag":0,"deal":0,"endorse":0,"giftTag":"","hallType":[],"hallTypeVOList":[],"sell":1,"snack":1,"vipTag":"折扣卡"},"promotion":{"cardPromotionTag":"开卡特惠，首单1张最高立减2元","couponPromotionTag":"","merchantActivityTag":"","packShowActivityTag":"","platformActivityTag":"","starActivityTag":""},"showTimes":"22:30"},{"id":24590,"mark":0,"nm":"中影大导演巨幕影城（深圳西乡店）","sellPrice":"39","addr":"宝安区西乡大道230号满京华艺峦大厦3座2楼","distance":"6.9km","tag":{"allowRefund":0,"buyout":0,"cityCardTag":0,"deal":0,"endorse":1,"giftTag":"","hallType":["CGS中国巨幕厅","杜比全景声厅","4K厅"],"hallTypeVOList":[{"name":"CGS中国巨幕厅","url":""},{"name":"杜比全景声厅","url":""},{"name":"4K厅","url":""}],"sell":1,"snack":1,"vipTag":"折扣卡"},"promotion":{"cardPromotionTag":"开卡特惠，首单2张最高立减2元","couponPromotionTag":"","merchantActivityTag":"","packShowActivityTag":"","platformActivityTag":"","starActivityTag":""},"showTimes":"21:40 | 22:50"},{"id":47,"mark":0,"nm":"金逸影城（建安店）","sellPrice":"40","addr":"宝安区建安二路河东骏丰园七巧国首层（宝润装饰城东北100米以内）","distance":"7.6km","tag":{"allowRefund":0,"buyout":0,"cityCardTag":0,"deal":0,"endorse":0,"giftTag":"","hallType":["DTS:X 临境音厅"],"hallTypeVOList":[{"name":"DTS:X 临境音厅","url":""}],"sell":1,"snack":1,"vipTag":"折扣卡"},"promotion":{"cardPromotionTag":"开卡特惠，首单2张最高立减4元","couponPromotionTag":"","merchantActivityTag":"","packShowActivityTag":"","platformActivityTag":"","starActivityTag":""},"showTimes":"22:30"},{"id":6326,"mark":0,"nm":"中影德金影城和平店","sellPrice":"40","addr":"宝安区福永镇和平村桥和路315号（德金财富广场）","distance":"7.9km","tag":{"allowRefund":1,"buyout":0,"cityCardTag":0,"deal":0,"endorse":1,"giftTag":"","hallType":[],"hallTypeVOList":[],"sell":1,"snack":1,"vipTag":"折扣卡"},"promotion":{"cardPromotionTag":"","couponPromotionTag":"","merchantActivityTag":"","packShowActivityTag":"","platformActivityTag":"","starActivityTag":""},"showTimes":"22:20"},{"id":5913,"mark":0,"nm":"大地影院（宝安时代城店）","sellPrice":"39","addr":"宝安区海城路与宝源路交汇处时代城6楼（坪洲地铁站C出口100米）","distance":"8.1km","tag":{"allowRefund":0,"buyout":0,"cityCardTag":0,"deal":0,"endorse":1,"giftTag":"","hallType":[],"hallTypeVOList":[],"sell":1,"snack":1,"vipTag":"折扣卡"},"promotion":{"cardPromotionTag":"开卡特惠，首单1张最高立减10元","couponPromotionTag":"","merchantActivityTag":"","packShowActivityTag":"","platformActivityTag":"","starActivityTag":""},"showTimes":"22:30"},{"id":11492,"mark":0,"nm":"东影南国国际影城（福永唐美店）","sellPrice":"39","addr":"宝安区凤塘大道523号唐美商场4楼","distance":"8.3km","tag":{"allowRefund":1,"buyout":0,"cityCardTag":0,"deal":0,"endorse":1,"giftTag":"","hallType":["CGS中国巨幕厅"],"hallTypeVOList":[{"name":"CGS中国巨幕厅","url":""}],"sell":1,"snack":0,"vipTag":"折扣卡"},"promotion":{"cardPromotionTag":"开卡特惠，首单2张最高立减2元","couponPromotionTag":"","merchantActivityTag":"","packShowActivityTag":"","platformActivityTag":"","starActivityTag":""},"showTimes":"22:10"},{"id":15678,"mark":0,"nm":"中影UL城市影院（宝立方店）","sellPrice":"38","addr":"宝安区西乡流塘新安四路198号宝立方博览中心三楼","distance":"8.4km","tag":{"allowRefund":1,"buyout":0,"cityCardTag":0,"deal":0,"endorse":1,"giftTag":"","hallType":[],"hallTypeVOList":[],"sell":1,"snack":1,"vipTag":"折扣卡"},"promotion":{"cardPromotionTag":"开卡特惠，首单2张最高立减2元","couponPromotionTag":"","merchantActivityTag":"","packShowActivityTag":"","platformActivityTag":"","starActivityTag":""},"showTimes":"22:40"},{"id":17228,"mark":0,"nm":"麦希CMC文创影城（金海华府荟悦城店）","sellPrice":"38","addr":"宝安区新安四路金海华府1楼","distance":"8.5km","tag":{"allowRefund":0,"buyout":0,"cityCardTag":0,"deal":0,"endorse":1,"giftTag":"","hallType":[],"hallTypeVOList":[],"sell":1,"snack":1,"vipTag":"折扣卡"},"promotion":{"cardPromotionTag":"开卡特惠，首单1张最高立减2元","couponPromotionTag":"","merchantActivityTag":"","packShowActivityTag":"","platformActivityTag":"","starActivityTag":""},"showTimes":"22:40"},{"id":16745,"mark":0,"nm":"深影华纳影城（翻身店）","sellPrice":"38","addr":"宝安区新安街道49区自由路137号大楼（翻身派出所旁）","distance":"9km","tag":{"allowRefund":0,"buyout":0,"cityCardTag":0,"deal":0,"endorse":1,"giftTag":"","hallType":[],"hallTypeVOList":[],"sell":1,"snack":1,"vipTag":"折扣卡"},"promotion":{"cardPromotionTag":"开卡特惠，首单2张最高立减2元","couponPromotionTag":"","merchantActivityTag":"","packShowActivityTag":"","platformActivityTag":"","starActivityTag":""},"showTimes":"22:40"},{"id":15592,"mark":0,"nm":"非凡数字影城","sellPrice":"38","addr":"宝安区石岩街道塘头大道39号一楼（邮政银行旁）","distance":"9.2km","tag":{"allowRefund":1,"buyout":0,"cityCardTag":0,"deal":0,"endorse":1,"giftTag":"","hallType":[],"hallTypeVOList":[],"sell":1,"snack":1,"vipTag":"折扣卡"},"promotion":{"cardPromotionTag":"开卡特惠，首单2张最高立减2元","couponPromotionTag":"","merchantActivityTag":"","packShowActivityTag":"","platformActivityTag":"","starActivityTag":""},"showTimes":"21:40"},{"id":11117,"mark":0,"nm":"ONE影城（沙井店）","sellPrice":"30.9","addr":"宝安区上南大街（联城购物广场4楼，原东影南国影城）","distance":"9.7km","tag":{"allowRefund":0,"buyout":0,"cityCardTag":0,"deal":0,"endorse":1,"giftTag":"","hallType":[],"hallTypeVOList":[],"sell":1,"snack":1,"vipTag":"折扣卡"},"promotion":{"cardPromotionTag":"开卡特惠，首单1张最高立减2元","couponPromotionTag":"","merchantActivityTag":"","packShowActivityTag":"","platformActivityTag":"","starActivityTag":""},"showTimes":"21:25"},{"id":8620,"mark":0,"nm":"中影DY影城（沙井店）","sellPrice":"38","addr":"宝安区沙井街道中心路34-1号形色城购物广场6楼（市民广场旁，老天虹对面）","distance":"10km","tag":{"allowRefund":0,"buyout":0,"cityCardTag":0,"deal":0,"endorse":1,"giftTag":"","hallType":["杜比全景声厅"],"hallTypeVOList":[{"name":"杜比全景声厅","url":""}],"sell":1,"snack":1,"vipTag":"折扣卡"},"promotion":{"cardPromotionTag":"开卡特惠，首单1张最高立减4元","couponPromotionTag":"","merchantActivityTag":"","packShowActivityTag":"","platformActivityTag":"","starActivityTag":""},"showTimes":"23:15"},{"id":18,"mark":0,"nm":"完美世界影城（17.5沙井店）","sellPrice":"33.9","addr":"宝安区（原17.5影城）沙井街道新沙路与中心路交汇处华润万家4楼A","distance":"10.7km","tag":{"allowRefund":0,"buyout":0,"cityCardTag":0,"deal":0,"endorse":1,"giftTag":"","hallType":[],"hallTypeVOList":[],"sell":1,"snack":1,"vipTag":"折扣卡"},"promotion":{"cardPromotionTag":"开卡特惠，首单2张最高立减10元","couponPromotionTag":"","merchantActivityTag":"","packShowActivityTag":"","platformActivityTag":"","starActivityTag":""},"showTimes":"21:40"}],"movieId":"346210","day":"2020-09-25","random":1601038476937,"paging":{"hasMore":true,"limit":20,"offset":0,"total":122},"showDays":{"dates":[{"date":"2020-09-25","isPredate":0},{"date":"2020-09-26","isPredate":0},{"date":"2020-09-27","isPredate":0},{"date":"2020-09-28","isPredate":0},{"date":"2020-09-29","isPredate":0},{"date":"2020-09-30","isPredate":0},{"date":"2020-10-01","isPredate":0},{"date":"2020-10-04","isPredate":0}]},"resId":"1601038473212"}